<?xml version="1.0" encoding="UTF-8" standalone="no"?>
<!DOCTYPE svg PUBLIC "-//W3C//DTD SVG 1.1//EN" "http://www.w3.org/Graphics/SVG/1.1/DTD/svg11.dtd">
<!-- Generated by Microsoft Visio, SVG Export A_Remove_Artist.svg Page-16 -->
<svg xmlns="http://www.w3.org/2000/svg" xmlns:xlink="http://www.w3.org/1999/xlink" xmlns:ev="http://www.w3.org/2001/xml-events"
		xmlns:v="http://schemas.microsoft.com/visio/2003/SVGExtensions/" width="8.26772in" height="11.6929in"
		viewBox="0 0 595.276 841.89" xml:space="preserve" color-interpolation-filters="sRGB" class="st13">
	<v:documentProperties v:langID="2057" v:metric="true" v:viewMarkup="false">
		<v:userDefs>
			<v:ud v:nameU="msvNoAutoConnect" v:val="VT0(1):26"/>
			<v:ud v:nameU="visV14CFF" v:prompt="" v:val="VT0(1):26"/>
			<v:ud v:nameU="visFlowchartType" v:prompt="" v:val="VT4(CrossFunctional)"/>
		</v:userDefs>
	</v:documentProperties>

	<style type="text/css">
	<![CDATA[
		.st1 {fill:#1ba1e2;stroke:#1ba1e2;stroke-linecap:round;stroke-linejoin:round;stroke-width:0.5}
		.st2 {fill:#d80073;stroke:#ffffff;stroke-linecap:round;stroke-linejoin:round;stroke-width:0.5}
		.st3 {fill:#ffffff;font-family:Segoe UI;font-size:1.00001em}
		.st4 {font-size:1em}
		.st5 {fill:#1ba1e2;stroke:#ffffff;stroke-linecap:round;stroke-linejoin:round;stroke-width:0.5}
		.st6 {fill:#1ba1e2;font-family:Segoe UI;font-size:1.00001em}
		.st7 {fill:#339933}
		.st8 {stroke:#339933;stroke-linecap:round;stroke-linejoin:round;stroke-width:0.5}
		.st9 {marker-end:url(#mrkr4-36);stroke:#1897d5;stroke-linecap:round;stroke-linejoin:round;stroke-width:0.5}
		.st10 {fill:#1897d5;fill-opacity:1;stroke:#1897d5;stroke-opacity:1;stroke-width:0.16556291390728}
		.st11 {fill:#ffffff;stroke:none;stroke-linecap:butt;stroke-width:7.2}
		.st12 {fill:#1076a7;font-family:Segoe UI;font-size:0.666664em}
		.st13 {fill:none;fill-rule:evenodd;font-size:12px;overflow:visible;stroke-linecap:square;stroke-miterlimit:3}
	]]>
	</style>

	<defs id="Markers">
		<g id="lend4">
			<path d="M 2 1 L 0 0 L 2 -1 L 2 1 " style="stroke:none"/>
		</g>
		<marker id="mrkr4-36" class="st10" v:arrowType="4" v:arrowSize="2" v:setback="12.08" refX="-12.08" orient="auto"
				markerUnits="strokeWidth" overflow="visible">
			<use xlink:href="#lend4" transform="scale(-6.04,-6.04) "/>
		</marker>
	</defs>
	<g v:mID="22" v:index="17" v:groupContext="foregroundPage">
		<v:userDefs>
			<v:ud v:nameU="msvThemeOrder" v:val="VT0(0):26"/>
		</v:userDefs>
		<title>A_Remove_Artist</title>
		<v:pageProperties v:drawingScale="0.0393701" v:pageScale="0.0393701" v:drawingUnits="24" v:shadowOffsetX="8.50394"
				v:shadowOffsetY="-8.50394"/>
		<v:layer v:name="Connector" v:index="0"/>
		<g id="shape1-1" v:mID="1" v:groupContext="shape" transform="translate(281.376,-737.008)">
			<title>Initial node</title>
			<v:userDefs>
				<v:ud v:nameU="visVersion" v:prompt="" v:val="VT0(15):26"/>
			</v:userDefs>
			<ellipse cx="17.0079" cy="824.882" rx="17.0079" ry="17.0079" class="st1"/>
		</g>
		<g id="shape3-3" v:mID="3" v:groupContext="shape" transform="translate(241.691,-674.646)">
			<title>Action</title>
			<desc>Get Data</desc>
			<v:userDefs>
				<v:ud v:nameU="visVersion" v:prompt="" v:val="VT0(15):26"/>
			</v:userDefs>
			<v:textBlock v:margins="rect(4,4,4,4)" v:tabSpace="42.5197"/>
			<v:textRect cx="56.6929" cy="824.882" width="113.39" height="34.0157"/>
			<rect x="0" y="807.874" width="113.386" height="34.0157" rx="8.50394" ry="8.50394" class="st2"/>
			<text x="33.42" y="828.48" class="st3" v:langID="2057"><v:paragraph v:horizAlign="1"/><v:tabList/>Get Data</text>		</g>
		<g id="shape4-6" v:mID="4" v:groupContext="shape" transform="translate(241.691,-612.284)">
			<title>Action.4</title>
			<desc>Load list of Artists</desc>
			<v:userDefs>
				<v:ud v:nameU="visVersion" v:prompt="" v:val="VT0(15):26"/>
			</v:userDefs>
			<v:textBlock v:margins="rect(4,4,4,4)" v:tabSpace="42.5197"/>
			<v:textRect cx="56.6929" cy="824.882" width="113.39" height="34.0157"/>
			<rect x="0" y="807.874" width="113.386" height="34.0157" rx="8.50394" ry="8.50394" class="st2"/>
			<text x="9.39" y="828.48" class="st3" v:langID="2057"><v:paragraph v:horizAlign="1"/><v:tabList/>Load list of Artists</text>		</g>
		<g id="shape5-9" v:mID="5" v:groupContext="shape" transform="translate(241.691,-530.125)">
			<title>Action.5</title>
			<desc>Display list of Events</desc>
			<v:userDefs>
				<v:ud v:nameU="visVersion" v:prompt="" v:val="VT0(15):26"/>
			</v:userDefs>
			<v:textBlock v:margins="rect(4,4,4,4)" v:tabSpace="42.5197"/>
			<v:textRect cx="56.6929" cy="823.488" width="113.39" height="36.8038"/>
			<rect x="0" y="805.086" width="113.386" height="36.8038" rx="8.50394" ry="8.50394" class="st2"/>
			<text x="21.38" y="819.89" class="st3" v:langID="2057"><v:paragraph v:horizAlign="1"/><v:tabList/>Display list of <tspan
						x="39.67" dy="1.2em" class="st4">Events</tspan></text>		</g>
		<g id="shape6-13" v:mID="6" v:groupContext="shape" transform="translate(241.691,-453.59)">
			<title>Action.6</title>
			<desc>Select Artist from list</desc>
			<v:userDefs>
				<v:ud v:nameU="visVersion" v:prompt="" v:val="VT0(15):26"/>
			</v:userDefs>
			<v:textBlock v:margins="rect(4,4,4,4)" v:tabSpace="42.5197"/>
			<v:textRect cx="56.6929" cy="823.488" width="113.39" height="36.8038"/>
			<rect x="0" y="805.086" width="113.386" height="36.8038" rx="8.50394" ry="8.50394" class="st2"/>
			<text x="11.02" y="819.89" class="st3" v:langID="2057"><v:paragraph v:horizAlign="1"/><v:tabList/>Select Artist from <tspan
						x="49.21" dy="1.2em" class="st4">list</tspan></text>		</g>
		<g id="shape7-17" v:mID="7" v:groupContext="shape" transform="translate(281.376,-379.843)">
			<title>Decision</title>
			<desc>sure</desc>
			<v:userDefs>
				<v:ud v:nameU="visVersion" v:prompt="" v:val="VT0(15):26"/>
			</v:userDefs>
			<v:textBlock v:margins="rect(4,4,4,4)" v:tabSpace="42.5197"/>
			<v:textRect cx="17.0079" cy="853.092" width="33.63" height="22.4037"/>
			<path d="M17.01 841.89 L34.02 824.88 L17.01 807.87 L0 824.88 L17.01 841.89 Z" class="st5"/>
			<text x="5.84" y="856.69" class="st6" v:langID="2057"><v:paragraph v:horizAlign="1"/><v:tabList/>sure</text>		</g>
		<g id="shape8-20" v:mID="8" v:groupContext="shape" transform="translate(241.691,-277.842)">
			<title>Action.8</title>
			<desc>Remove Artist from list</desc>
			<v:userDefs>
				<v:ud v:nameU="visVersion" v:prompt="" v:val="VT0(15):26"/>
			</v:userDefs>
			<v:textBlock v:margins="rect(4,4,4,4)" v:tabSpace="42.5197"/>
			<v:textRect cx="56.6929" cy="823.488" width="113.39" height="36.8038"/>
			<rect x="0" y="805.086" width="113.386" height="36.8038" rx="8.50394" ry="8.50394" class="st2"/>
			<text x="5.31" y="819.89" class="st3" v:langID="2057"><v:paragraph v:horizAlign="1"/><v:tabList/>Remove Artist from <tspan
						x="49.21" dy="1.2em" class="st4">list</tspan></text>		</g>
		<g id="shape10-24" v:mID="10" v:groupContext="shape" transform="translate(281.376,-208.37)">
			<title>Decision.10</title>
			<desc>Again?</desc>
			<v:userDefs>
				<v:ud v:nameU="visVersion" v:prompt="" v:val="VT0(15):26"/>
			</v:userDefs>
			<v:textBlock v:margins="rect(4,4,4,4)" v:tabSpace="42.5197"/>
			<v:textRect cx="17.0079" cy="853.092" width="47.28" height="22.4037"/>
			<path d="M17.01 841.89 L34.02 824.88 L17.01 807.87 L0 824.88 L17.01 841.89 Z" class="st5"/>
			<text x="-0.99" y="856.69" class="st6" v:langID="2057"><v:paragraph v:horizAlign="1"/><v:tabList/>Again?</text>		</g>
		<g id="shape11-27" v:mID="11" v:groupContext="shape" transform="translate(281.376,-117.661)">
			<title>Final node</title>
			<v:userDefs>
				<v:ud v:nameU="visVersion" v:prompt="" v:val="VT0(15):26"/>
			</v:userDefs>
			<path d="M30.61 824.88 A13.6063 13.6063 -180 1 0 3.4 824.88 A13.6063 13.6063 -180 1 0 30.61 824.88 Z" class="st7"/>
			<path d="M34.02 824.88 A17.0079 17.0079 -180 1 0 0 824.88 A17.0079 17.0079 -180 1 0 34.02 824.88" class="st8"/>
			<path d="M30.61 824.88 A13.6063 13.6063 -180 1 0 3.4 824.88 A13.6063 13.6063 -180 1 0 30.61 824.88" class="st8"/>
		</g>
		<g id="shape12-31" v:mID="12" v:groupContext="shape" v:layerMember="0" transform="translate(291.297,-737.008)">
			<title>Dynamic connector</title>
			<path d="M7.09 841.89 L7.09 864.2" class="st9"/>
		</g>
		<g id="shape13-37" v:mID="13" v:groupContext="shape" v:layerMember="0" transform="translate(291.297,-674.646)">
			<title>Dynamic connector.13</title>
			<path d="M7.09 841.89 L7.09 864.2" class="st9"/>
		</g>
		<g id="shape14-42" v:mID="14" v:groupContext="shape" v:layerMember="0" transform="translate(291.297,-612.284)">
			<title>Dynamic connector.14</title>
			<path d="M7.09 841.89 L7.09 881.2" class="st9"/>
		</g>
		<g id="shape15-47" v:mID="15" v:groupContext="shape" v:layerMember="0" transform="translate(291.297,-530.125)">
			<title>Dynamic connector.15</title>
			<path d="M7.09 841.89 L7.09 875.58" class="st9"/>
		</g>
		<g id="shape16-52" v:mID="16" v:groupContext="shape" v:layerMember="0" transform="translate(291.297,-453.59)">
			<title>Dynamic connector.16</title>
			<path d="M7.09 841.89 L7.09 875.58" class="st9"/>
		</g>
		<g id="shape17-57" v:mID="17" v:groupContext="shape" v:layerMember="0" transform="translate(281.376,-396.85)">
			<title>Dynamic connector.17</title>
			<desc>no</desc>
			<v:textBlock v:margins="rect(4,4,4,4)" v:tabSpace="42.5197"/>
			<v:textRect cx="-50.557" cy="824.162" width="40" height="17.6036"/>
			<path d="M0 841.89 L-50.56 841.89 L-50.56 766.75 L-45.73 766.75" class="st9"/>
			<rect v:rectContext="textBkgnd" x="-55.1644" y="819.362" width="9.21478" height="9.59985" class="st11"/>
			<text x="-55.16" y="826.56" class="st12" v:langID="2057"><v:paragraph v:horizAlign="1"/><v:tabList/>no</text>		</g>
		<g id="shape18-64" v:mID="18" v:groupContext="shape" v:layerMember="0" transform="translate(291.297,-379.843)">
			<title>Dynamic connector.18</title>
			<desc>yes</desc>
			<v:textBlock v:margins="rect(4,4,4,4)" v:tabSpace="42.5197"/>
			<v:textRect cx="7.08661" cy="874.488" width="40" height="17.6036"/>
			<path d="M7.09 841.89 L7.09 901.05" class="st9"/>
			<rect v:rectContext="textBkgnd" x="1.36197" y="869.688" width="11.4491" height="9.59985" class="st11"/>
			<text x="1.36" y="876.89" class="st12" v:langID="2057"><v:paragraph v:horizAlign="1"/><v:tabList/>yes</text>		</g>
		<g id="shape19-71" v:mID="19" v:groupContext="shape" v:layerMember="0" transform="translate(291.297,-277.842)">
			<title>Dynamic connector.19</title>
			<path d="M7.09 841.89 L7.09 871.31" class="st9"/>
		</g>
		<g id="shape20-76" v:mID="20" v:groupContext="shape" v:layerMember="0" transform="translate(291.297,-208.37)">
			<title>Dynamic connector.20</title>
			<desc>no</desc>
			<v:textBlock v:margins="rect(4,4,4,4)" v:tabSpace="42.5197"/>
			<v:textRect cx="7.08661" cy="870.236" width="40" height="17.6036"/>
			<path d="M7.09 841.89 L7.09 892.54" class="st9"/>
			<rect v:rectContext="textBkgnd" x="2.47928" y="865.436" width="9.21478" height="9.59985" class="st11"/>
			<text x="2.48" y="872.64" class="st12" v:langID="2057"><v:paragraph v:horizAlign="1"/><v:tabList/>no</text>		</g>
		<g id="shape21-83" v:mID="21" v:groupContext="shape" v:layerMember="0" transform="translate(315.392,-225.378)">
			<title>Dynamic connector.21</title>
			<desc>yes</desc>
			<v:textBlock v:margins="rect(4,4,4,4)" v:tabSpace="42.5197"/>
			<v:textRect cx="50.557" cy="738.425" width="40" height="17.6036"/>
			<path d="M0 841.89 L50.56 841.89 L50.56 595.28 L45.73 595.28" class="st9"/>
			<rect v:rectContext="textBkgnd" x="44.8324" y="733.625" width="11.4491" height="9.59985" class="st11"/>
			<text x="44.83" y="740.83" class="st12" v:langID="2057"><v:paragraph v:horizAlign="1"/><v:tabList/>yes</text>		</g>
	</g>
</svg>
