<?xml version="1.0" encoding="UTF-8" standalone="no"?>
<!DOCTYPE svg PUBLIC "-//W3C//DTD SVG 1.1//EN" "http://www.w3.org/Graphics/SVG/1.1/DTD/svg11.dtd">
<!-- Generated by Microsoft Visio, SVG Export A_View_Event_Details.svg A_View_Event_Details -->
<svg xmlns="http://www.w3.org/2000/svg" xmlns:xlink="http://www.w3.org/1999/xlink" xmlns:ev="http://www.w3.org/2001/xml-events"
		xmlns:v="http://schemas.microsoft.com/visio/2003/SVGExtensions/" width="8.26772in" height="34.0787in"
		viewBox="0 0 595.276 2453.67" xml:space="preserve" color-interpolation-filters="sRGB" class="st17">
	<v:documentProperties v:langID="2057" v:metric="true" v:viewMarkup="false">
		<v:userDefs>
			<v:ud v:nameU="msvNoAutoConnect" v:val="VT0(1):26"/>
			<v:ud v:nameU="visV14CFF" v:prompt="" v:val="VT0(1):26"/>
			<v:ud v:nameU="visFlowchartType" v:prompt="" v:val="VT4(CrossFunctional)"/>
		</v:userDefs>
	</v:documentProperties>

	<style type="text/css">
	<![CDATA[
		.st1 {fill:#1ba1e2;stroke:#1ba1e2;stroke-linecap:round;stroke-linejoin:round;stroke-width:0.5}
		.st2 {fill:#d80073;stroke:#ffffff;stroke-linecap:round;stroke-linejoin:round;stroke-width:0.5}
		.st3 {fill:#ffffff;font-family:Segoe UI;font-size:1.00001em}
		.st4 {font-size:1em}
		.st5 {fill:#1ba1e2;stroke:#ffffff;stroke-linecap:round;stroke-linejoin:round;stroke-width:0.5}
		.st6 {fill:#1ba1e2;font-family:Segoe UI;font-size:1.00001em}
		.st7 {marker-end:url(#mrkr4-76);stroke:#1897d5;stroke-linecap:round;stroke-linejoin:round;stroke-width:0.5}
		.st8 {fill:#1897d5;fill-opacity:1;stroke:#1897d5;stroke-opacity:1;stroke-width:0.16556291390728}
		.st9 {fill:#ffffff;stroke:none;stroke-linecap:butt;stroke-width:7.2}
		.st10 {fill:#1076a7;font-family:Segoe UI;font-size:0.666664em}
		.st11 {fill:#ffffff;stroke:none;stroke-linecap:butt}
		.st12 {fill:#339933}
		.st13 {stroke:#339933;stroke-linecap:round;stroke-linejoin:round;stroke-width:0.5}
		.st14 {fill:#1ba1e2}
		.st15 {stroke:#1ba1e2;stroke-linecap:round;stroke-linejoin:round;stroke-width:0.5}
		.st16 {fill:#ffffff;stroke:#ffffff;stroke-linecap:round;stroke-linejoin:round;stroke-width:0.5}
		.st17 {fill:none;fill-rule:evenodd;font-size:12px;overflow:visible;stroke-linecap:square;stroke-miterlimit:3}
	]]>
	</style>

	<defs id="Markers">
		<g id="lend4">
			<path d="M 2 1 L 0 0 L 2 -1 L 2 1 " style="stroke:none"/>
		</g>
		<marker id="mrkr4-76" class="st8" v:arrowType="4" v:arrowSize="2" v:setback="12.08" refX="-12.08" orient="auto"
				markerUnits="strokeWidth" overflow="visible">
			<use xlink:href="#lend4" transform="scale(-6.04,-6.04) "/>
		</marker>
	</defs>
	<g v:mID="13" v:index="7" v:groupContext="foregroundPage">
		<v:userDefs>
			<v:ud v:nameU="msvThemeOrder" v:val="VT0(0):26"/>
		</v:userDefs>
		<title>A_View_Event_Details</title>
		<v:pageProperties v:drawingScale="0.0393701" v:pageScale="0.0393701" v:drawingUnits="24" v:shadowOffsetX="8.50394"
				v:shadowOffsetY="-8.50394"/>
		<v:layer v:name="Connector" v:index="0"/>
		<g id="shape1-1" v:mID="1" v:groupContext="shape" transform="translate(272.976,-2382.78)">
			<title>Initial node</title>
			<v:userDefs>
				<v:ud v:nameU="visVersion" v:prompt="" v:val="VT0(15):26"/>
			</v:userDefs>
			<ellipse cx="17.0079" cy="2436.66" rx="17.0079" ry="17.0079" class="st1"/>
		</g>
		<g id="shape2-3" v:mID="2" v:groupContext="shape" transform="translate(233.291,-2309.13)">
			<title>Action</title>
			<desc>pull the Event Selected</desc>
			<v:userDefs>
				<v:ud v:nameU="visVersion" v:prompt="" v:val="VT0(15):26"/>
			</v:userDefs>
			<v:textBlock v:margins="rect(4,4,4,4)" v:tabSpace="42.5197"/>
			<v:textRect cx="56.6929" cy="2435.27" width="113.39" height="36.8038"/>
			<rect x="0" y="2416.87" width="113.386" height="36.8038" rx="8.50394" ry="8.50394" class="st2"/>
			<text x="20.53" y="2431.67" class="st3" v:langID="2057"><v:paragraph v:horizAlign="1"/><v:tabList/>pull the Event <tspan
						x="34.3" dy="1.2em" class="st4">Selected</tspan></text>		</g>
		<g id="shape3-7" v:mID="3" v:groupContext="shape" transform="translate(233.291,-1022.22)">
			<title>Action.3</title>
			<desc>Read any external links</desc>
			<v:userDefs>
				<v:ud v:nameU="visVersion" v:prompt="" v:val="VT0(15):26"/>
			</v:userDefs>
			<v:textBlock v:margins="rect(4,4,4,4)" v:tabSpace="42.5197"/>
			<v:textRect cx="56.6929" cy="2435.27" width="113.39" height="36.8038"/>
			<rect x="0" y="2416.87" width="113.386" height="36.8038" rx="8.50394" ry="8.50394" class="st2"/>
			<text x="9.69" y="2431.67" class="st3" v:langID="2057"><v:paragraph v:horizAlign="1"/><v:tabList/>Read any external <tspan
						x="44.86" dy="1.2em" class="st4">links</tspan></text>		</g>
		<g id="shape6-11" v:mID="6" v:groupContext="shape" transform="translate(233.291,-1964.49)">
			<title>Action.6</title>
			<desc>Create empty DOM(Variable for storing the page components)</desc>
			<v:userDefs>
				<v:ud v:nameU="visVersion" v:prompt="" v:val="VT0(15):26"/>
			</v:userDefs>
			<v:textBlock v:margins="rect(4,4,4,4)" v:tabSpace="42.5197"/>
			<v:textRect cx="56.6929" cy="2420.87" width="113.39" height="65.604"/>
			<rect x="0" y="2388.07" width="113.386" height="65.604" rx="8.50394" ry="8.50394" class="st2"/>
			<text x="21.12" y="2402.87" class="st3" v:langID="2057"><v:paragraph v:horizAlign="1"/><v:tabList/>Create empty <tspan
						x="10.15" dy="1.2em" class="st4">DOM(Variable for </tspan><tspan x="13.03" dy="1.2em" class="st4">storing the page </tspan><tspan
						x="21.88" dy="1.2em" class="st4">components)</tspan></text>		</g>
		<g id="shape7-17" v:mID="7" v:groupContext="shape" transform="translate(233.291,-1886.56)">
			<title>Action.7</title>
			<desc>Read the Event into an Associative Array</desc>
			<v:userDefs>
				<v:ud v:nameU="visVersion" v:prompt="" v:val="VT0(15):26"/>
			</v:userDefs>
			<v:textBlock v:margins="rect(4,4,4,4)" v:tabSpace="42.5197"/>
			<v:textRect cx="56.6929" cy="2428.07" width="113.39" height="51.2039"/>
			<rect x="0" y="2402.47" width="113.386" height="51.2039" rx="8.50394" ry="8.50394" class="st2"/>
			<text x="5.01" y="2417.27" class="st3" v:langID="2057"><v:paragraph v:horizAlign="1"/><v:tabList/>Read the Event into <tspan
						x="19.35" dy="1.2em" class="st4">an Associative </tspan><tspan x="42.69" dy="1.2em" class="st4">Array</tspan></text>		</g>
		<g id="shape8-22" v:mID="8" v:groupContext="shape" transform="translate(233.291,-894.207)">
			<title>Action.8</title>
			<desc>Add the promotional information to the DOM</desc>
			<v:userDefs>
				<v:ud v:nameU="visVersion" v:prompt="" v:val="VT0(15):26"/>
			</v:userDefs>
			<v:textBlock v:margins="rect(4,4,4,4)" v:tabSpace="42.5197"/>
			<v:textRect cx="56.6929" cy="2420.87" width="113.39" height="65.604"/>
			<rect x="0" y="2388.07" width="113.386" height="65.604" rx="8.50394" ry="8.50394" class="st2"/>
			<text x="35.55" y="2402.87" class="st3" v:langID="2057"><v:paragraph v:horizAlign="1"/><v:tabList/>Add the <tspan
						x="23.98" dy="1.2em" class="st4">promotional </tspan><tspan x="8.34" dy="1.2em" class="st4">information to the </tspan><tspan
						x="42.57" dy="1.2em" class="st4">DOM</tspan></text>		</g>
		<g id="shape9-28" v:mID="9" v:groupContext="shape" transform="translate(233.291,-1739.34)">
			<title>Action.9</title>
			<desc>format the Event title, thumbnail, artist/band, description, ...</desc>
			<v:userDefs>
				<v:ud v:nameU="visVersion" v:prompt="" v:val="VT0(15):26"/>
			</v:userDefs>
			<v:textBlock v:margins="rect(4,4,4,4)" v:tabSpace="42.5197"/>
			<v:textRect cx="56.6929" cy="2399.27" width="113.39" height="108.804"/>
			<rect x="0" y="2344.86" width="113.386" height="108.804" rx="8.50394" ry="8.50394" class="st2"/>
			<text x="12.63" y="2359.67" class="st3" v:langID="2057"><v:paragraph v:horizAlign="1"/><v:tabList/>format the Event <tspan
						x="15.46" dy="1.2em" class="st4">title, thumbnail, <v:newlineChar/></tspan><tspan x="26.34" dy="1.2em"
						class="st4">artist/band, </tspan><tspan x="11.9" dy="1.2em" class="st4">description, Start </tspan><tspan
						x="17.9" dy="1.2em" class="st4">Date and time, </tspan><tspan x="9.97" dy="1.2em" class="st4">entrance fee, max </tspan><tspan
						x="7.7" dy="1.2em" class="st4">number of people.</tspan></text>		</g>
		<g id="shape10-37" v:mID="10" v:groupContext="shape" transform="translate(233.291,-1654.3)">
			<title>Action.10</title>
			<desc>Add the formated data to the DOM</desc>
			<v:userDefs>
				<v:ud v:nameU="visVersion" v:prompt="" v:val="VT0(15):26"/>
			</v:userDefs>
			<v:textBlock v:margins="rect(4,4,4,4)" v:tabSpace="42.5197"/>
			<v:textRect cx="56.6929" cy="2435.27" width="113.39" height="36.8038"/>
			<rect x="0" y="2416.87" width="113.386" height="36.8038" rx="8.50394" ry="8.50394" class="st2"/>
			<text x="9.5" y="2431.67" class="st3" v:langID="2057"><v:paragraph v:horizAlign="1"/><v:tabList/>Add the formated <tspan
						x="11.86" dy="1.2em" class="st4">data to the DOM</tspan></text>		</g>
		<g id="shape11-41" v:mID="11" v:groupContext="shape" transform="translate(233.291,-1516.07)">
			<title>Action.11</title>
			<desc>Read and add any external references to additional promotiona...</desc>
			<v:userDefs>
				<v:ud v:nameU="visVersion" v:prompt="" v:val="VT0(15):26"/>
			</v:userDefs>
			<v:textBlock v:margins="rect(4,4,4,4)" v:tabSpace="42.5197"/>
			<v:textRect cx="56.6929" cy="2413.67" width="113.39" height="80.0041"/>
			<rect x="0" y="2373.67" width="113.386" height="80.0041" rx="8.50394" ry="8.50394" class="st2"/>
			<text x="9" y="2388.47" class="st3" v:langID="2057"><v:paragraph v:horizAlign="1"/><v:tabList/>Read and add any <tspan
						x="6.69" dy="1.2em" class="st4">external references </tspan><tspan x="23.02" dy="1.2em" class="st4">to additional </tspan><tspan
						x="23.98" dy="1.2em" class="st4">promotional </tspan><tspan x="29.97" dy="1.2em" class="st4">Resources</tspan></text>		</g>
		<g id="shape12-48" v:mID="12" v:groupContext="shape" transform="translate(233.291,-1092.41)">
			<title>Action.12</title>
			<desc>Load the Promotional Resources on the View Event Details webp...</desc>
			<v:userDefs>
				<v:ud v:nameU="visVersion" v:prompt="" v:val="VT0(15):26"/>
			</v:userDefs>
			<v:textBlock v:margins="rect(4,4,4,4)" v:tabSpace="42.5197"/>
			<v:textRect cx="56.6929" cy="2413.67" width="113.39" height="80.0041"/>
			<rect x="0" y="2373.67" width="113.386" height="80.0041" rx="8.50394" ry="8.50394" class="st2"/>
			<text x="33.56" y="2388.47" class="st3" v:langID="2057"><v:paragraph v:horizAlign="1"/><v:tabList/>Load the <tspan
						x="24.14" dy="1.2em" class="st4">Promotional </tspan><tspan x="11.2" dy="1.2em" class="st4">Resources on the </tspan><tspan
						x="8.39" dy="1.2em" class="st4">View Event Details </tspan><tspan x="14.7" dy="1.2em" class="st4">webpage(DOM)</tspan></text>		</g>
		<g id="shape13-55" v:mID="13" v:groupContext="shape" transform="translate(238.707,-671.891)">
			<title>Action.13</title>
			<desc>load External links to the View Event Details webpage (DOM)</desc>
			<v:userDefs>
				<v:ud v:nameU="visVersion" v:prompt="" v:val="VT0(15):26"/>
			</v:userDefs>
			<v:textBlock v:margins="rect(4,4,4,4)" v:tabSpace="42.5197"/>
			<v:textRect cx="56.6929" cy="2420.87" width="113.39" height="65.604"/>
			<rect x="0" y="2388.07" width="113.386" height="65.604" rx="8.50394" ry="8.50394" class="st2"/>
			<text x="9.07" y="2402.87" class="st3" v:langID="2057"><v:paragraph v:horizAlign="1"/><v:tabList/>load External links <tspan
						x="10.52" dy="1.2em" class="st4">to the View Event </tspan><tspan x="12.91" dy="1.2em" class="st4">Details webpage </tspan><tspan
						x="38.95" dy="1.2em" class="st4">(DOM)</tspan></text>		</g>
		<g id="shape14-61" v:mID="14" v:groupContext="shape" transform="translate(91.5591,-2238.33)">
			<title>Action.14</title>
			<desc>Show appropriate error message</desc>
			<v:userDefs>
				<v:ud v:nameU="visVersion" v:prompt="" v:val="VT0(15):26"/>
			</v:userDefs>
			<v:textBlock v:margins="rect(4,4,4,4)" v:tabSpace="42.5197"/>
			<v:textRect cx="56.6929" cy="2435.27" width="113.39" height="36.8038"/>
			<rect x="0" y="2416.87" width="113.386" height="36.8038" rx="8.50394" ry="8.50394" class="st2"/>
			<text x="9.62" y="2431.67" class="st3" v:langID="2057"><v:paragraph v:horizAlign="1"/><v:tabList/>Show appropriate <tspan
						x="19.02" dy="1.2em" class="st4">error message</tspan></text>		</g>
		<g id="shape15-65" v:mID="15" v:groupContext="shape" transform="translate(272.976,-2239.72)">
			<title>Decision</title>
			<desc>Error?</desc>
			<v:userDefs>
				<v:ud v:nameU="visVersion" v:prompt="" v:val="VT0(15):26"/>
			</v:userDefs>
			<v:textBlock v:margins="rect(4,4,4,4)" v:tabSpace="42.5197"/>
			<v:textRect cx="17.0079" cy="2464.87" width="42.29" height="22.4037"/>
			<path d="M17.01 2453.67 L34.02 2436.66 L17.01 2419.65 L0 2436.66 L17.01 2453.67 Z" class="st5"/>
			<text x="1.51" y="2468.47" class="st6" v:langID="2057"><v:paragraph v:horizAlign="1"/><v:tabList/>Error?</text>		</g>
		<g id="shape16-68" v:mID="16" v:groupContext="shape" transform="translate(131.244,-2167.46)">
			<title>Decision.16</title>
			<desc>Retry?</desc>
			<v:userDefs>
				<v:ud v:nameU="visVersion" v:prompt="" v:val="VT0(15):26"/>
			</v:userDefs>
			<v:textBlock v:margins="rect(4,4,4,4)" v:tabSpace="42.5197"/>
			<v:textRect cx="17.0079" cy="2464.87" width="44.17" height="22.4037"/>
			<path d="M17.01 2453.67 L34.02 2436.66 L17.01 2419.65 L0 2436.66 L17.01 2453.67 Z" class="st5"/>
			<text x="0.57" y="2468.47" class="st6" v:langID="2057"><v:paragraph v:horizAlign="1"/><v:tabList/>Retry?</text>		</g>
		<g id="shape17-71" v:mID="17" v:groupContext="shape" v:layerMember="0" transform="translate(282.898,-2382.78)">
			<title>Dynamic connector</title>
			<path d="M7.09 2453.67 L7.09 2484.48" class="st7"/>
		</g>
		<g id="shape18-77" v:mID="18" v:groupContext="shape" v:layerMember="0" transform="translate(297.071,-2309.13)">
			<title>Dynamic connector.18</title>
			<path d="M-7.09 2453.67 L-7.09 2483.02" class="st7"/>
		</g>
		<g id="shape19-82" v:mID="19" v:groupContext="shape" v:layerMember="0" transform="translate(272.976,-2249.64)">
			<title>Dynamic connector.19</title>
			<desc>yes</desc>
			<v:textBlock v:margins="rect(4,4,4,4)" v:tabSpace="42.5197"/>
			<v:textRect cx="-34.0157" cy="2446.58" width="40" height="17.6036"/>
			<path d="M0 2446.58 L-61.99 2446.58" class="st7"/>
			<rect v:rectContext="textBkgnd" x="-39.7404" y="2441.78" width="11.4491" height="9.59985" class="st9"/>
			<text x="-39.74" y="2448.98" class="st10" v:langID="2057"><v:paragraph v:horizAlign="1"/><v:tabList/>yes</text>		</g>
		<g id="shape20-89" v:mID="20" v:groupContext="shape" v:layerMember="0" transform="translate(141.165,-2238.33)">
			<title>Dynamic connector.20</title>
			<path d="M7.09 2453.67 L7.09 2484.48" class="st7"/>
		</g>
		<g id="shape21-94" v:mID="21" v:groupContext="shape" v:layerMember="0" transform="translate(131.244,-2184.47)">
			<title>Dynamic connector.21</title>
			<desc>yes</desc>
			<v:textBlock v:margins="rect(4,4,4,4)" v:tabSpace="42.5197"/>
			<v:textRect cx="-53.8583" cy="2331.12" width="40" height="17.6036"/>
			<path d="M0 2453.67 L-53.86 2453.67 L-53.86 2314.7 L91.18 2314.7 L91.18 2310.61 L96.01 2310.61" class="st7"/>
			<rect v:rectContext="textBkgnd" x="-59.5829" y="2326.32" width="11.4491" height="9.59985" class="st11"/>
			<text x="-59.58" y="2333.52" class="st10" v:langID="2057"><v:paragraph v:horizAlign="1"/><v:tabList/>yes</text>		</g>
		<g id="shape22-101" v:mID="22" v:groupContext="shape" v:layerMember="0" transform="translate(141.165,-2167.46)">
			<title>Dynamic connector.22</title>
			<desc>no</desc>
			<v:textBlock v:margins="rect(4,4,4,4)" v:tabSpace="42.5197"/>
			<v:textRect cx="7.08661" cy="2536.75" width="40" height="17.6036"/>
			<path d="M7.09 2453.67 L7.09 2613.8" class="st7"/>
			<rect v:rectContext="textBkgnd" x="2.47928" y="2531.95" width="9.21478" height="9.59985" class="st9"/>
			<text x="2.48" y="2539.15" class="st10" v:langID="2057"><v:paragraph v:horizAlign="1"/><v:tabList/>no</text>		</g>
		<g id="shape23-108" v:mID="23" v:groupContext="shape" transform="translate(278.392,-401.386)">
			<title>Final node</title>
			<v:userDefs>
				<v:ud v:nameU="visVersion" v:prompt="" v:val="VT0(15):26"/>
			</v:userDefs>
			<path d="M30.61 2436.66 A13.6063 13.6063 -180 1 0 3.4 2436.66 A13.6063 13.6063 -180 1 0 30.61 2436.66 Z" class="st12"/>
			<path d="M34.02 2436.66 A17.0079 17.0079 -180 1 0 0 2436.66 A17.0079 17.0079 -180 1 0 34.02 2436.66" class="st13"/>
			<path d="M30.61 2436.66 A13.6063 13.6063 -180 1 0 3.4 2436.66 A13.6063 13.6063 -180 1 0 30.61 2436.66" class="st13"/>
		</g>
		<g id="shape24-112" v:mID="24" v:groupContext="shape" v:layerMember="0" transform="translate(282.898,-2239.72)">
			<title>Dynamic connector.24</title>
			<desc>no</desc>
			<v:textBlock v:margins="rect(4,4,4,4)" v:tabSpace="42.5197"/>
			<v:textRect cx="7.08661" cy="2558.48" width="40" height="17.6036"/>
			<path d="M7.09 2453.67 L7.09 2657.26" class="st7"/>
			<rect v:rectContext="textBkgnd" x="2.47928" y="2553.68" width="9.21478" height="9.59985" class="st11"/>
			<text x="2.48" y="2560.88" class="st10" v:langID="2057"><v:paragraph v:horizAlign="1"/><v:tabList/>no</text>		</g>
		<g id="shape25-119" v:mID="25" v:groupContext="shape" v:layerMember="0" transform="translate(282.898,-1964.49)">
			<title>Dynamic connector.25</title>
			<path d="M7.09 2453.67 L7.09 2474.35" class="st7"/>
		</g>
		<g id="shape26-124" v:mID="26" v:groupContext="shape" transform="translate(272.976,-1424.74)">
			<title>Decision.26</title>
			<desc>error?</desc>
			<v:userDefs>
				<v:ud v:nameU="visVersion" v:prompt="" v:val="VT0(15):26"/>
			</v:userDefs>
			<v:textBlock v:margins="rect(4,4,4,4)" v:tabSpace="42.5197"/>
			<v:textRect cx="17.0079" cy="2464.87" width="42.5" height="22.4037"/>
			<path d="M17.01 2453.67 L34.02 2436.66 L17.01 2419.65 L0 2436.66 L17.01 2453.67 Z" class="st5"/>
			<text x="1.41" y="2468.47" class="st6" v:langID="2057"><v:paragraph v:horizAlign="1"/><v:tabList/>error?</text>		</g>
		<g id="shape27-127" v:mID="27" v:groupContext="shape" transform="translate(272.976,-1250.44)">
			<title>Decision.27</title>
			<desc>content missing?</desc>
			<v:userDefs>
				<v:ud v:nameU="visVersion" v:prompt="" v:val="VT0(15):26"/>
			</v:userDefs>
			<v:textBlock v:margins="rect(4,4,4,4)" v:tabSpace="42.5197"/>
			<v:textRect cx="17.0079" cy="2464.87" width="100.72" height="22.4037"/>
			<path d="M17.01 2453.67 L34.02 2436.66 L17.01 2419.65 L0 2436.66 L17.01 2453.67 Z" class="st5"/>
			<text x="-27.7" y="2468.47" class="st6" v:langID="2057"><v:paragraph v:horizAlign="1"/><v:tabList/>content missing?</text>		</g>
		<g id="shape28-130" v:mID="28" v:groupContext="shape" transform="translate(425.943,-1424.74)">
			<title>Action.28</title>
			<desc>Show error message</desc>
			<v:userDefs>
				<v:ud v:nameU="visVersion" v:prompt="" v:val="VT0(15):26"/>
			</v:userDefs>
			<v:textBlock v:margins="rect(4,4,4,4)" v:tabSpace="42.5197"/>
			<v:textRect cx="56.6929" cy="2435.27" width="113.39" height="36.8038"/>
			<rect x="0" y="2416.87" width="113.386" height="36.8038" rx="8.50394" ry="8.50394" class="st2"/>
			<text x="27.7" y="2431.67" class="st3" v:langID="2057"><v:paragraph v:horizAlign="1"/><v:tabList/>Show error <tspan
						x="33.57" dy="1.2em" class="st4">message</tspan></text>		</g>
		<g id="shape29-134" v:mID="29" v:groupContext="shape" transform="translate(351.347,-1234.65)">
			<title>Action.29</title>
			<desc>inform user of missing content if not content is available</desc>
			<v:userDefs>
				<v:ud v:nameU="visVersion" v:prompt="" v:val="VT0(15):26"/>
			</v:userDefs>
			<v:textBlock v:margins="rect(4,4,4,4)" v:tabSpace="42.5197"/>
			<v:textRect cx="56.6929" cy="2420.87" width="113.39" height="65.604"/>
			<rect x="0" y="2388.07" width="113.386" height="65.604" rx="8.50394" ry="8.50394" class="st2"/>
			<text x="19.35" y="2402.87" class="st3" v:langID="2057"><v:paragraph v:horizAlign="1"/><v:tabList/>inform user of <tspan
						x="9.7" dy="1.2em" class="st4">missing content if </tspan><tspan x="20.18" dy="1.2em" class="st4">not content is </tspan><tspan
						x="33.64" dy="1.2em" class="st4">available</tspan></text>		</g>
		<g id="shape30-140" v:mID="30" v:groupContext="shape" transform="translate(272.976,-1338.98)">
			<title>Decision.30</title>
			<desc>More to read?</desc>
			<v:userDefs>
				<v:ud v:nameU="visVersion" v:prompt="" v:val="VT0(15):26"/>
			</v:userDefs>
			<v:textBlock v:margins="rect(4,4,4,4)" v:tabSpace="42.5197"/>
			<v:textRect cx="17.0079" cy="2464.87" width="86.22" height="22.4037"/>
			<path d="M17.01 2453.67 L34.02 2436.66 L17.01 2419.65 L0 2436.66 L17.01 2453.67 Z" class="st5"/>
			<text x="-20.45" y="2468.47" class="st6" v:langID="2057"><v:paragraph v:horizAlign="1"/><v:tabList/>More to read?</text>		</g>
		<g id="shape31-143" v:mID="31" v:groupContext="shape" v:layerMember="0" transform="translate(282.898,-1886.56)">
			<title>Dynamic connector.31</title>
			<path d="M7.09 2453.67 L7.09 2486.05" class="st7"/>
		</g>
		<g id="shape32-148" v:mID="32" v:groupContext="shape" v:layerMember="0" transform="translate(282.898,-1739.34)">
			<title>Dynamic connector.32</title>
			<path d="M7.09 2453.67 L7.09 2495.86" class="st7"/>
		</g>
		<g id="shape33-153" v:mID="33" v:groupContext="shape" v:layerMember="0" transform="translate(282.898,-1654.3)">
			<title>Dynamic connector.33</title>
			<path d="M7.09 2453.67 L7.09 2505.85" class="st7"/>
		</g>
		<g id="shape34-158" v:mID="34" v:groupContext="shape" v:layerMember="0" transform="translate(282.898,-1516.07)">
			<title>Dynamic connector.34</title>
			<path d="M7.09 2453.67 L7.09 2504.95" class="st7"/>
		</g>
		<g id="shape35-163" v:mID="35" v:groupContext="shape" v:layerMember="0" transform="translate(282.898,-1424.74)">
			<title>Dynamic connector.35</title>
			<path d="M7.09 2453.67 L7.09 2499.37" class="st7"/>
		</g>
		<g id="shape36-168" v:mID="36" v:groupContext="shape" v:layerMember="0" transform="translate(282.898,-1338.98)">
			<title>Dynamic connector.36</title>
			<path d="M7.09 2453.67 L7.09 2502.16" class="st7"/>
		</g>
		<g id="shape37-173" v:mID="37" v:groupContext="shape" v:layerMember="0" transform="translate(306.992,-1260.36)">
			<title>Dynamic connector.37</title>
			<path d="M0 2446.58 L38.31 2446.58" class="st7"/>
		</g>
		<g id="shape38-178" v:mID="38" v:groupContext="shape" v:layerMember="0" transform="translate(282.898,-1250.44)">
			<title>Dynamic connector.38</title>
			<path d="M7.09 2453.67 L7.09 2525.66" class="st7"/>
		</g>
		<g id="shape39-183" v:mID="39" v:groupContext="shape" v:layerMember="0" transform="translate(306.992,-1435.36)">
			<title>Dynamic connector.39</title>
			<path d="M0 2447.28 L112.91 2445.96" class="st7"/>
		</g>
		<g id="shape40-188" v:mID="40" v:groupContext="shape" v:layerMember="0" transform="translate(272.976,-1355.99)">
			<title>Dynamic connector.40</title>
			<path d="M0 2453.67 L-50.56 2453.67 L-50.56 2253.59 L-45.73 2253.59" class="st7"/>
		</g>
		<g id="shape41-193" v:mID="41" v:groupContext="shape" v:layerMember="0" transform="translate(408.04,-1234.65)">
			<title>Dynamic connector.41</title>
			<path d="M0 2453.67 L0 2647.69 L-55.32 2647.69" class="st7"/>
		</g>
		<g id="shape42-198" v:mID="42" v:groupContext="shape" v:layerMember="0" transform="translate(475.549,-1424.74)">
			<title>Dynamic connector.42</title>
			<path d="M7.09 2453.67 L7.09 2497.98" class="st7"/>
		</g>
		<g id="shape43-203" v:mID="43" v:groupContext="shape" v:layerMember="0" transform="translate(282.898,-1092.41)">
			<title>Dynamic connector.43</title>
			<path d="M7.09 2453.67 L7.09 2481.01" class="st7"/>
		</g>
		<g id="shape44-208" v:mID="44" v:groupContext="shape" transform="translate(272.976,-797.782)">
			<title>Decision.44</title>
			<desc>More to read?</desc>
			<v:userDefs>
				<v:ud v:nameU="visVersion" v:prompt="" v:val="VT0(15):26"/>
			</v:userDefs>
			<v:textBlock v:margins="rect(4,4,4,4)" v:tabSpace="42.5197"/>
			<v:textRect cx="17.0079" cy="2464.87" width="86.22" height="22.4037"/>
			<path d="M17.01 2453.67 L34.02 2436.66 L17.01 2419.65 L0 2436.66 L17.01 2453.67 Z" class="st5"/>
			<text x="-20.45" y="2468.47" class="st6" v:langID="2057"><v:paragraph v:horizAlign="1"/><v:tabList/>More to read?</text>		</g>
		<g id="shape45-211" v:mID="45" v:groupContext="shape" transform="translate(238.707,-560.399)">
			<title>Action.45</title>
			<desc>Assamble the DOM and load the Page (Dinamically)</desc>
			<v:userDefs>
				<v:ud v:nameU="visVersion" v:prompt="" v:val="VT0(15):26"/>
			</v:userDefs>
			<v:textBlock v:margins="rect(4,4,4,4)" v:tabSpace="42.5197"/>
			<v:textRect cx="56.6929" cy="2428.07" width="113.39" height="51.2039"/>
			<rect x="0" y="2402.47" width="113.386" height="51.2039" rx="8.50394" ry="8.50394" class="st2"/>
			<text x="5.42" y="2417.27" class="st3" v:langID="2057"><v:paragraph v:horizAlign="1"/><v:tabList/>Assamble the DOM <tspan
						x="8.58" dy="1.2em" class="st4">and load the Page </tspan><tspan x="22.71" dy="1.2em" class="st4">(Dinamically)</tspan></text>		</g>
		<g id="shape46-216" v:mID="46" v:groupContext="shape" v:layerMember="0" transform="translate(282.898,-1022.22)">
			<title>Dynamic connector.46</title>
			<path d="M7.09 2453.67 L7.09 2510.04" class="st7"/>
		</g>
		<g id="shape47-221" v:mID="47" v:groupContext="shape" v:layerMember="0" transform="translate(282.898,-894.207)">
			<title>Dynamic connector.47</title>
			<path d="M7.09 2453.67 L7.09 2510.04" class="st7"/>
		</g>
		<g id="shape48-226" v:mID="48" v:groupContext="shape" v:layerMember="0" transform="translate(272.976,-814.79)">
			<title>Dynamic connector.48</title>
			<path d="M0 2453.67 L-50.56 2453.67 L-50.56 2227.84 L-45.73 2227.84" class="st7"/>
		</g>
		<g id="shape49-231" v:mID="49" v:groupContext="shape" v:layerMember="0" transform="translate(285.605,-797.782)">
			<title>Dynamic connector.49</title>
			<path d="M4.38 2453.67 L4.38 2464.54 L9.79 2464.54 L9.79 2507.92" class="st7"/>
		</g>
		<g id="shape50-236" v:mID="50" v:groupContext="shape" v:layerMember="0" transform="translate(288.313,-671.891)">
			<title>Dynamic connector.50</title>
			<path d="M7.09 2453.67 L7.09 2507.92" class="st7"/>
		</g>
		<g id="shape51-241" v:mID="51" v:groupContext="shape" v:layerMember="0" transform="translate(288.313,-560.399)">
			<title>Dynamic connector.51</title>
			<path d="M7.09 2453.67 L7.09 2471.7" class="st7"/>
		</g>
		<g id="shape53-246" v:mID="53" v:groupContext="shape" v:layerMember="0" transform="translate(288.313,-470.721)">
			<title>Dynamic connector.53</title>
			<path d="M7.09 2453.67 L7.09 2482.95" class="st7"/>
		</g>
		<g id="group4-251" transform="translate(417.543,-1969.65)" v:mID="4" v:groupContext="group">
			<v:userDefs>
				<v:ud v:nameU="visVersion" v:prompt="" v:val="VT0(15):26"/>
				<v:ud v:nameU="msvStructureType" v:prompt="" v:val="VT4(Callout)"/>
				<v:ud v:nameU="msvSDTargetIntersection" v:prompt=""/>
				<v:ud v:nameU="msvSDCalloutNoHighlight" v:prompt="" v:val="VT0(0):5"/>
				<v:ud v:nameU="msvShapeCategories" v:prompt="" v:val="VT0(0):26"/>
				<v:ud v:nameU="Side" v:prompt="" v:val="VT0(4):26"/>
				<v:ud v:nameU="LeaderEnd" v:prompt="" v:val="VT7(PNT(6.25MM,-0.28346456692913)):40"/>
				<v:ud v:nameU="WHBoxIntersection" v:prompt="" v:val="VT7(PNT(10.096153846154MM,0)):40"/>
				<v:ud v:nameU="FoldSize" v:prompt="" v:val="VT0(0.11811023622047):24"/>
				<v:ud v:nameU="msvSDTargetIntersection" v:prompt="" v:val="VT7(PNT(-0.98425212740791,0.38385826771654)):40"/>
				<v:ud v:nameU="Side" v:prompt="" v:val="VT0(3):26"/>
				<v:ud v:nameU="LeaderEnd" v:prompt="" v:val="VT7(PNT(-0.98425212740791,0.38385826771654)):40"/>
				<v:ud v:nameU="WHBoxIntersection" v:prompt="" v:val="VT7(PNT(0MM,9.75MM)):40"/>
			</v:userDefs>
			<title>Note</title>
			<desc>Building Event&#39;s main view</desc>
			<g id="shape4-252" v:mID="4" v:groupContext="groupContent">
				<v:textBlock v:margins="rect(4,4,4,4)" v:tabSpace="42.5197"/>
				<v:textRect cx="35.4331" cy="2426.03" width="70.87" height="51.2039"/>
				<path d="M0 2453.67 L70.87 2453.67 L70.87 2406.9 L62.36 2398.39 L0 2398.39 L0 2453.67 Z" class="st14"/>
				<path d="M0 2426.03 L-70.87 2426.03" class="st15"/>
				<path d="M0 2453.67 L70.87 2453.67 L70.87 2406.9 L62.36 2398.39 L0 2398.39 L0 2453.67" class="st15"/>
				<text x="4" y="2415.23" class="st3" v:langID="2057"><v:paragraph/><v:tabList/>Building <tspan x="4" dy="1.2em"
							class="st4">Event&#39;s </tspan><tspan x="4" dy="1.2em" class="st4">main view</tspan></text>			</g>
			<g id="shape5-259" v:mID="5" v:groupContext="shape" transform="translate(62.3622,-46.7717)">
				<title>Sheet.5</title>
				<v:userDefs>
					<v:ud v:nameU="FoldSize" v:prompt="" v:val="VT0(0.11811023622047):24"/>
				</v:userDefs>
				<path d="M0 2453.67 L8.5 2453.67 L8.5 2454.52 L8.5 2453.67 L0 2445.17 L-0.85 2445.17 L0 2445.17 L0 2453.67 Z"
						class="st16"/>
			</g>
		</g>
		<g id="shape52-261" v:mID="52" v:groupContext="shape" transform="translate(238.707,-470.721)">
			<title>Action.52</title>
			<desc>Show message based on HTML Status Code (Default 200)</desc>
			<v:userDefs>
				<v:ud v:nameU="visVersion" v:prompt="" v:val="VT0(15):26"/>
			</v:userDefs>
			<v:textBlock v:margins="rect(4,4,4,4)" v:tabSpace="42.5197"/>
			<v:textRect cx="56.6929" cy="2420.87" width="113.39" height="65.604"/>
			<rect x="0" y="2388.07" width="113.386" height="65.604" rx="8.50394" ry="8.50394" class="st2"/>
			<text x="17.49" y="2402.87" class="st3" v:langID="2057"><v:paragraph v:horizAlign="1"/><v:tabList/>Show message <tspan
						x="15.08" dy="1.2em" class="st4">based on HTML </tspan><tspan x="24.9" dy="1.2em" class="st4">Status Code </tspan><tspan
						x="22.57" dy="1.2em" class="st4">(Default 200)</tspan></text>		</g>
		<g id="shape55-267" v:mID="55" v:groupContext="shape" v:layerMember="0" transform="translate(482.636,-1337.59)">
			<title>Dynamic connector.55</title>
			<path d="M0 2453.67 L0 3287.74 L-124.5 3287.74" class="st7"/>
		</g>
		<g id="shape54-272" v:mID="54" v:groupContext="shape" transform="translate(425.943,-1337.59)">
			<title>Action.54</title>
			<desc>return Status code based on error</desc>
			<v:userDefs>
				<v:ud v:nameU="visVersion" v:prompt="" v:val="VT0(15):26"/>
			</v:userDefs>
			<v:textBlock v:margins="rect(4,4,4,4)" v:tabSpace="42.5197"/>
			<v:textRect cx="56.6929" cy="2435.27" width="113.39" height="36.8038"/>
			<rect x="0" y="2416.87" width="113.386" height="36.8038" rx="8.50394" ry="8.50394" class="st2"/>
			<text x="8.07" y="2431.67" class="st3" v:langID="2057"><v:paragraph v:horizAlign="1"/><v:tabList/>return Status code <tspan
						x="17.79" dy="1.2em" class="st4">based on error</tspan></text>		</g>
		<g id="shape56-276" v:mID="56" v:groupContext="shape" transform="translate(91.5591,-1964.49)">
			<title>Action.56</title>
			<desc>return Status code based on error</desc>
			<v:userDefs>
				<v:ud v:nameU="visVersion" v:prompt="" v:val="VT0(15):26"/>
			</v:userDefs>
			<v:textBlock v:margins="rect(4,4,4,4)" v:tabSpace="42.5197"/>
			<v:textRect cx="56.6929" cy="2435.27" width="113.39" height="36.8038"/>
			<rect x="0" y="2416.87" width="113.386" height="36.8038" rx="8.50394" ry="8.50394" class="st2"/>
			<text x="8.07" y="2431.67" class="st3" v:langID="2057"><v:paragraph v:horizAlign="1"/><v:tabList/>return Status code <tspan
						x="17.79" dy="1.2em" class="st4">based on error</tspan></text>		</g>
		<g id="shape57-280" v:mID="57" v:groupContext="shape" v:layerMember="0" transform="translate(148.252,-1964.49)">
			<title>Dynamic connector.57</title>
			<path d="M0 2453.67 L0 3914.64 L84.42 3914.64" class="st7"/>
		</g>
	</g>
</svg>
